\relax 
\providecommand\hyper@newdestlabel[2]{}
\providecommand\HyperFirstAtBeginDocument{\AtBeginDocument}
\HyperFirstAtBeginDocument{\ifx\hyper@anchor\@undefined
\global\let\oldcontentsline\contentsline
\gdef\contentsline#1#2#3#4{\oldcontentsline{#1}{#2}{#3}}
\global\let\oldnewlabel\newlabel
\gdef\newlabel#1#2{\newlabelxx{#1}#2}
\gdef\newlabelxx#1#2#3#4#5#6{\oldnewlabel{#1}{{#2}{#3}}}
\AtEndDocument{\ifx\hyper@anchor\@undefined
\let\contentsline\oldcontentsline
\let\newlabel\oldnewlabel
\fi}
\fi}
\global\let\hyper@last\relax 
\gdef\HyperFirstAtBeginDocument#1{#1}
\providecommand\HyField@AuxAddToFields[1]{}
\providecommand\HyField@AuxAddToCoFields[2]{}
\citation{kefaloukos2014declarative,nutanong2012multiresolution,peng2014viewing}
\citation{drosou2012disc}
\select@language{english}
\@writefile{toc}{\select@language{english}}
\@writefile{lof}{\select@language{english}}
\@writefile{lot}{\select@language{english}}
\@writefile{toc}{\contentsline {section}{Abstract}{1}{section*.1}}
\@writefile{toc}{\contentsline {section}{\numberline {1}Introduction}{1}{section.1}}
\newlabel{sec:intro}{{1}{1}{Introduction}{section.1}{}}
\newlabel{sec:intro@cref}{{[section][1][]1}{1}}
\newlabel{exm:sos}{{1.1}{1}{}{theorem.1.1}{}}
\newlabel{exm:sos@cref}{{[example][1][1]1.1}{1}}
\newlabel{fig:demo_2}{{1}{1}{Introduction}{figure.caption.3}{}}
\newlabel{fig:demo_2@cref}{{[section][1][]1}{1}}
\citation{poisam}
\citation{drosou2012disc,das2012efficient,nutanong2012multiresolution}
\providecommand*\caption@xref[2]{\@setref\relax\@undefined{#1}}
\newlabel{fig:tweet_a}{{1(a)}{2}{Subfigure 1(a)}{subfigure.1.1}{}}
\newlabel{fig:tweet_a@cref}{{[subfigure][1][1]1(a)}{2}}
\newlabel{sub@fig:tweet_a}{{(a)}{2}{Subfigure 1(a)\relax }{subfigure.1.1}{}}
\newlabel{fig:tweet_b}{{1(b)}{2}{Subfigure 1(b)}{subfigure.1.2}{}}
\newlabel{fig:tweet_b@cref}{{[subfigure][2][1]1(b)}{2}}
\newlabel{sub@fig:tweet_b}{{(b)}{2}{Subfigure 1(b)\relax }{subfigure.1.2}{}}
\@writefile{lof}{\contentsline {figure}{\numberline {1}{\ignorespaces Spatial Object Selection Examples (Twitter data)\relax }}{2}{figure.caption.3}}
\@writefile{lof}{\contentsline {subfigure}{\numberline{(a)}{\ignorespaces {Wihtout any selection, it is messy to view all the POIs}}}{2}{figure.caption.3}}
\@writefile{lof}{\contentsline {subfigure}{\numberline{(b)}{\ignorespaces {Only a few representative POIs are shown to the user on the map view (1). After the user clicks on a tweet near \textit {Fedration Square}, a word cloud view (2) summaries all the similar tweets and a detailed tweet view (3) is shown to the user.}}}{2}{figure.caption.3}}
\@writefile{toc}{\contentsline {section}{\numberline {2}Data Model and Queries.}{2}{section.2}}
\newlabel{sec:model}{{2}{2}{Data Model and Queries}{section.2}{}}
\newlabel{sec:model@cref}{{[section][2][]2}{2}}
\@writefile{toc}{\contentsline {subsection}{\numberline {2.1}Spatial Object Selection (SOS) Query}{2}{subsection.2.1}}
\newlabel{eq:sim2o}{{1}{2}{Spatial Object Selection (SOS) Query}{equation.2.1}{}}
\newlabel{eq:sim2o@cref}{{[equation][1][]1}{2}}
\newlabel{eq:objfunc}{{2}{2}{Spatial Object Selection (SOS) Query}{equation.2.2}{}}
\newlabel{eq:objfunc@cref}{{[equation][2][]2}{2}}
\@writefile{toc}{\contentsline {subsection}{\numberline {2.2}Interactive Spatial Object Selection (\textsc  {isos}\xspace  ) Query}{2}{subsection.2.2}}
\citation{beckmann1990r}
\citation{poisam}
\citation{Li2018}
\@writefile{toc}{\contentsline {section}{\numberline {3}POIsam Prototype}{3}{section.3}}
\newlabel{sec:proto}{{3}{3}{POIsam Prototype}{section.3}{}}
\newlabel{sec:proto@cref}{{[section][3][]3}{3}}
\@writefile{lof}{\contentsline {figure}{\numberline {2}{\ignorespaces System Architecture\relax }}{3}{figure.caption.4}}
\newlabel{fig:arch}{{2}{3}{System Architecture\relax }{figure.caption.4}{}}
\newlabel{fig:arch@cref}{{[figure][2][]2}{3}}
\@writefile{toc}{\contentsline {subsection}{\numberline {3.1}Indexing Module}{3}{subsection.3.1}}
\@writefile{toc}{\contentsline {subsection}{\numberline {3.2}Query Processor Module}{3}{subsection.3.2}}
\@writefile{toc}{\contentsline {subsection}{\numberline {3.3}Browser Module}{3}{subsection.3.3}}
\@writefile{toc}{\contentsline {section}{\numberline {4}Demonstration and Details}{3}{section.4}}
\newlabel{sec:demo}{{4}{3}{Demonstration and Details}{section.4}{}}
\newlabel{sec:demo@cref}{{[section][4][]4}{3}}
\bibstyle{abbrv}
\bibdata{ref}
\bibcite{beckmann1990r}{{1}{}{{}}{{}}}
\bibcite{das2012efficient}{{2}{}{{}}{{}}}
\bibcite{drosou2012disc}{{3}{}{{}}{{}}}
\bibcite{poisam}{{4}{}{{}}{{}}}
\bibcite{kefaloukos2014declarative}{{5}{}{{}}{{}}}
\bibcite{Li2018}{{6}{}{{}}{{}}}
\bibcite{nutanong2012multiresolution}{{7}{}{{}}{{}}}
\bibcite{peng2014viewing}{{8}{}{{}}{{}}}
\newlabel{tocindent-1}{0pt}
\newlabel{tocindent0}{0pt}
\newlabel{tocindent1}{4.5pt}
\newlabel{tocindent2}{11.25pt}
\newlabel{tocindent3}{0pt}
\providecommand\NAT@force@numbers{}\NAT@force@numbers
\newlabel{fig:demo_1}{{4}{4}{Demonstration and Details}{figure.caption.5}{}}
\newlabel{fig:demo_1@cref}{{[section][4][]4}{4}}
\@writefile{toc}{\contentsline {subsection}{\numberline {4.1}Demonstration I: the real estate data}{4}{subsection.4.1}}
\@writefile{toc}{\contentsline {subsection}{\numberline {4.2}Demonstration II: the twitter data}{4}{subsection.4.2}}
\@writefile{toc}{\contentsline {section}{References}{4}{section*.7}}
\newlabel{fig:suburb}{{3(a)}{5}{Subfigure 3(a)}{subfigure.3.1}{}}
\newlabel{fig:suburb@cref}{{[subfigure][1][3]3(a)}{5}}
\newlabel{sub@fig:suburb}{{(a)}{5}{Subfigure 3(a)\relax }{subfigure.3.1}{}}
\newlabel{fig:property}{{3(b)}{5}{Subfigure 3(b)}{subfigure.3.2}{}}
\newlabel{fig:property@cref}{{[subfigure][2][3]3(b)}{5}}
\newlabel{sub@fig:property}{{(b)}{5}{Subfigure 3(b)\relax }{subfigure.3.2}{}}
\@writefile{lof}{\contentsline {figure}{\numberline {3}{\ignorespaces Demonstration examples based on the real estate data\relax }}{5}{figure.caption.5}}
\@writefile{lof}{\contentsline {subfigure}{\numberline{(a)}{\ignorespaces {Exploring suburbs with the map view}}}{5}{figure.caption.5}}
\@writefile{lof}{\contentsline {subfigure}{\numberline{(b)}{\ignorespaces {Exploring individual properties: (1) selectio panel; (2) map view; (3) detailed information view }}}{5}{figure.caption.5}}
\newlabel{TotPages}{{5}{5}{}{page.5}{}}
